{
    "acts": [
        {
            "map": "mapquest", 
            "name": "National", 
            "scenes": [
                {
                    "fluoros": [
                        {
                            "bl": [
                                23, 
                                -130
                            ], 
                            "id": "undefined|Weather|1", 
                            "name": "Weather", 
                            "tr": [
                                50, 
                                -60
                            ]
                        }
                    ], 
                    "name": "Weather"
                }, 
                {
                    "fluoros": [
                        {
                            "id": "undefined|Weather|1", 
                            "name": "Weather", 
                            "remove": true
                        }
                    ], 
                    "map": {
                        "alpha-per-second": 1, 
                        "background": "toner", 
                        "layers": []
                    }, 
                    "name": "layout_1", 
                    "time": {
                        "bounds": {
                            "loop": 0, 
                            "max": null, 
                            "min": null
                        }, 
                        "display": {
                            "feld": "main", 
                            "loc": [
                                -0.5, 
                                0.5
                            ], 
                            "visible": false
                        }
                    }, 
                    "zoom": {
                        "lat": 37.8018332, 
                        "lon": -122.40303668, 
                        "zoom": 1165606.7061574701
                    }
                }, 
                {
                    "map": {
                        "alpha-per-second": 1, 
                        "background": "toner", 
                        "layers": [
                            "layout_1", 
                            "layout_2"
                        ]
                    }, 
                    "name": "layout_2", 
                    "zoom": {
                        "lat": 33.9425, 
                        "lon": -118.40910000000001, 
                        "zoom": 155871.7549774
                    }
                }
            ], 
            "zoom": {
                "lat": 38.69697364, 
                "lon": -100.68777032, 
                "zoom": 16.04374113
            }
        }
    ], 
    "geocode": {}, 
    "name": "Show Runner"
}